<svg
	id="svg"
	viewBox="0 0 172 56"
	xmlns="http://www.w3.org/2000/svg"
	xmlns:cc="http://creativecommons.org/ns#"
	xmlns:dc="http://purl.org/dc/elements/1.1/"
	xmlns:inkscape="http://www.inkscape.org/namespaces/inkscape"
	xmlns:rdf="http://www.w3.org/1999/02/22-rdf-syntax-ns#"
	xmlns:sodipodi="http://sodipodi.sourceforge.net/DTD/sodipodi-0.dtd"
	xmlns:svg="http://www.w3.org/2000/svg"
	xmlns:xlink="http://www.w3.org/1999/xlink"
>
	<defs id="defs4">
		<style id="current-color-scheme" type="text/css">
			.ColorScheme-Text {
				color:#31363b;
				stop-color:#31363b;
			}
			.ColorScheme-Background {
				color:#eff0f1;
				stop-color:#eff0f1;
			}
			.ColorScheme-Highlight {
				color:#3daee9;
				stop-color:#3daee9;
			}
			.ColorScheme-ViewText {
				color:#31363b;
				stop-color:#31363b;
			}
			.ColorScheme-ViewBackground {
				color:#fcfcfc;
				stop-color:#fcfcfc;
			}
			.ColorScheme-ViewHover {
				color:#93cee9;
				stop-color:#93cee9;
			}
			.ColorScheme-ViewFocus{
				color:#3daee9;
				stop-color:#3daee9;
			}
			.ColorScheme-ButtonText {
				color:#31363b;
				stop-color:#31363b;
			}
			.ColorScheme-ButtonBackground {
				color:#eff0f1;
				stop-color:#eff0f1;
			}
			.ColorScheme-ButtonHover {
				color:#93cee9;
				stop-color:#93cee9;
			}
			.ColorScheme-ButtonFocus{
				color:#3daee9;
				stop-color:#3daee9;
			}
		</style>
		<linearGradient id="linearGradientShadowEdge" inkscape:collect="always">
			<stop
				id="stopEdge"
				offset="0"
				style="stop-color:#000000;stop-opacity:0.44444444"
			/>
			<stop
				id="stopEdgeShadowDone"
				offset="0.6666666666666666"
				style="stop-color:#000000;stop-opacity:0;"
			/>
		</linearGradient>
		<linearGradient id="linearGradientShadowCorner" inkscape:collect="always">
			<stop
				id="stopCornerEdge"
				offset="0.3333333333333333"
				style="stop-color:#000000;stop-opacity:0.44444444"
			/>
			<stop
				id="stopCornerShadowDone"
				offset="0.7777777777777778"
				style="stop-color:#000000;stop-opacity:0;"
			/>
		</linearGradient>
		<linearGradient
			id="linearGradientShadowLeft"
			gradientUnits="userSpaceOnUse"
			inkscape:collect="always"
			xlink:href="#linearGradientShadowEdge"
			x1="6"
			y1="28"
			x2="0"
			y2="28"
		/>
		<radialGradient
			id="radialGradientShadowTopLeft"
			gradientUnits="userSpaceOnUse"
			inkscape:collect="always"
			xlink:href="#linearGradientShadowCorner"
			cx="9.0"
			cy="9.0"
			fx="9.0"
			fy="9.0"
			r="9.0"
		/>
		<linearGradient
			id="linearGradientShadowTop"
			gradientUnits="userSpaceOnUse"
			inkscape:collect="always"
			xlink:href="#linearGradientShadowEdge"
			x1="28"
			y1="6"
			x2="28"
			y2="0"
		/>
		<radialGradient
			id="radialGradientShadowTopRight"
			gradientUnits="userSpaceOnUse"
			inkscape:collect="always"
			xlink:href="#linearGradientShadowCorner"
			cx="41.0"
			cy="9.0"
			fx="41.0"
			fy="9.0"
			r="9.0"
		/>
		<linearGradient
			id="linearGradientShadowRight"
			gradientUnits="userSpaceOnUse"
			inkscape:collect="always"
			xlink:href="#linearGradientShadowEdge"
			x1="44.0"
			y1="28"
			x2="50.0"
			y2="28"
		/>
		<linearGradient
			id="linearGradientShadowBottom"
			gradientUnits="userSpaceOnUse"
			inkscape:collect="always"
			xlink:href="#linearGradientShadowEdge"
			x1="28"
			y1="44.0"
			x2="28"
			y2="50.0"
		/>
		<radialGradient
			id="radialGradientShadowBottomLeft"
			gradientUnits="userSpaceOnUse"
			inkscape:collect="always"
			xlink:href="#linearGradientShadowCorner"
			cx="9.0"
			cy="41.0"
			fx="9.0"
			fy="41.0"
			r="9.0"
		/>
		<radialGradient
			id="radialGradientShadowBottomRight"
			gradientUnits="userSpaceOnUse"
			inkscape:collect="always"
			xlink:href="#linearGradientShadowCorner"
			cx="41.0"
			cy="41.0"
			fx="41.0"
			fy="41.0"
			r="9.0"
		/>
	</defs>
	<sodipodi:namedview
		id="base"
		pagecolor="#b0dba0"
		bordercolor="#cc0000"
		borderopacity="1"
		inkscape:pageopacity="0.65882353"
		inkscape:pageshadow="2"
		inkscape:zoom="8.0"
		inkscape:cx="86"
		inkscape:cy="28"
		inkscape:document-units="px"
		inkscape:current-layer="layer1"
		showgrid="true"
		inkscape:showpageshadow="false"
		borderlayer="true"
		units="px"
		inkscape:window-width="1920"
		inkscape:window-height="1029"
		inkscape:window-x="0"
		inkscape:window-y="-3"
		inkscape:window-maximized="1"
		showguides="true"
		fit-margin-top="0"
		fit-margin-left="0"
		fit-margin-right="0"
		fit-margin-bottom="0"
	>
		<inkscape:grid
			type="xygrid"
			id="grid3336"
			empspacing="2"
			originx="0"
			originy="-91.999976"
			visible="true"
			enabled="true"
			snapvisiblegridlinesonly="true"
		/>
	</sodipodi:namedview>
	<metadata id="metadata7">
		<rdf:RDF>
			<cc:Work rdf:about="">
				<dc:format>image/svg+xml</dc:format>
				<dc:type rdf:resource="http://purl.org/dc/dcmitype/StillImage" />
				<dc:title />
			</cc:Work>
		</rdf:RDF>
	</metadata>
	<g id="layer1" inkscape:label="Layer 1" inkscape:groupmode="layer">
		<!-- Hints -->
		<rect
			id="hint-tile-center"
			x="0"
			y="0"
			width="4"
			height="4"
			style="opacity:1;fill:#ff6600;fill-opacity:1;stroke:none"
		/>
		<rect
			id="thick-center"
			x="0"
			y="5"
			width="4"
			height="4"
			style="fill:#800080;fill-opacity:1;stroke:none"
		/>
		


		<!-- Tileset -->
		<g id="tileset" transform="translate(6,6)">
			<g id="topleft">
				<path
					id="rectTopLeft"
					class="ColorScheme-Background"
					d="m 3.0,3.0 h -3.0 v -0.0 c 0,-2.0 1.0,-3.0 3.0,-3.0 h 0.0 z"
					style="opacity:0.75;fill:currentColor;fill-opacity:1;stroke:none"
				/>
			</g>
			<g id="top">
				<rect
					id="rectTop"
					class="ColorScheme-Background"
					x="3.0"
					y="0"
					width="32"
					height="3.0"
					style="opacity:0.75;fill:currentColor;fill-opacity:1;stroke:none"
				/>
			</g>
			<g id="topright">
				<path
					id="rectRight"
					class="ColorScheme-Background"
					d="m 35.0,3.0 v -3.0 h 0.0 c 2.0,0 3.0,1.0 3.0,3.0 v 0.0 z"
					style="opacity:0.75;fill:currentColor;fill-opacity:1;stroke:none"
				/>
			</g>
			<g id="left">
				<rect
					id="rectLeft"
					class="ColorScheme-Background"
					x="0"
					y="3.0"
					width="3.0"
					height="32"
					style="opacity:0.75;fill:currentColor;fill-opacity:1;stroke:none"
				/>
			</g>
			<g id="center">
				<rect
					id="rectCenter"
					class="ColorScheme-Background"
					x="3.0"
					y="3.0"
					width="32"
					height="32"
					style="opacity:0.75;fill:currentColor;fill-opacity:1;stroke:none"
				/>
			</g>
			<g id="right">
				<rect
					id="rectRight"
					class="ColorScheme-Background"
					x="35.0"
					y="3.0"
					width="3.0"
					height="32"
					style="opacity:0.75;fill:currentColor;fill-opacity:1;stroke:none"
				/>
			</g>
			<g id="bottomleft">
				<path
					id="pathBottomLeft"
					class="ColorScheme-Background"
					d="m 3.0,35.0 v 3.0 h -0.0 c -2.0,0 -3.0,-1.0 -3.0,-3.0 v -0.0 z"
					style="opacity:0.75;fill:currentColor;fill-opacity:1;stroke:none"
				/>
			</g>
			<g id="bottom">
				<rect
					id="rectBottom"
					class="ColorScheme-Background"
					x="3.0"
					y="35.0"
					width="32"
					height="3.0"
					style="opacity:0.75;fill:currentColor;fill-opacity:1;stroke:none"
				/>
			</g>
			<g id="bottomright">
				<path
					id="rectBottomRight"
					class="ColorScheme-Background"
					d="m 35.0,35.0 h 3.0 v 0.0 c 0,2.0 -1.0,3.0 -3.0,3.0 h -0.0 z"
					style="opacity:0.75;fill:currentColor;fill-opacity:1;stroke:none"
				/>
			</g>

			<!-- Margins -->
			<rect
				id="hint-top-margin"
				x="15.0"
				y="0"
				width="4"
				height="2.0"
				style="fill:#ff00ff;fill-opacity:1;stroke:none"
			/>
			<rect
				id="hint-left-margin"
				x="0"
				y="15.0"
				width="2.0"
				height="4"
				style="fill:#ff00ff;fill-opacity:1;stroke:none"
			/>
			<rect
				id="hint-right-margin"
				x="36.0"
				y="15.0"
				width="2.0"
				height="4"
				style="fill:#ff00ff;fill-opacity:1;stroke:none"
			/>
			<rect
				id="hint-bottom-margin"
				x="15.0"
				y="36.0"
				width="4"
				height="2.0"
				style="fill:#ff00ff;fill-opacity:1;stroke:none"
			/>

			<!-- Thick Margins -->
			<rect
				id="thick-hint-top-margin"
				x="19.0"
				y="0"
				width="4"
				height="8.0"
				style="fill:#800080;fill-opacity:1;stroke:none"
			/>
			<rect
				id="thick-hint-left-margin"
				x="0"
				y="19.0"
				width="8.0"
				height="4"
				style="fill:#800080;fill-opacity:1;stroke:none"
			/>
			<rect
				id="thick-hint-right-margin"
				x="30.0"
				y="19.0"
				width="8.0"
				height="4"
				style="fill:#800080;fill-opacity:1;stroke:none"
			/>
			<rect
				id="thick-hint-bottom-margin"
				x="19.0"
				y="30.0"
				width="4"
				height="8.0"
				style="fill:#800080;fill-opacity:1;stroke:none"
			/>
		</g>

		<!-- Shadow Tileset -->
		<g id="shadow-tileset" transform="translate(58,0)">
			<g id="shadow-topleft" style="opacity:1">
				<rect
					id="rectShadowTopLeft-Left"
					x="0"
					y="9.0"
					width="6"
					height="0.0"
					style="fill:url(#linearGradientShadowLeft);fill-opacity:1;fill-rule:evenodd;stroke:none;stroke-width:1px;stroke-linecap:butt;stroke-linejoin:miter;stroke-opacity:1;opacity:0.9"
				/>
				<path
					id="pathShadowTopLeft-TopLeft"
					d="m 0,0 v 9.0 h 6 c 0,-2.0 1.0,-3.0 3.0,-3.0 v -6 z"
					style="opacity:0.9;fill:url(#radialGradientShadowTopLeft);fill-opacity:1;fill-rule:evenodd;stroke:none;stroke-width:1px;stroke-linecap:butt;stroke-linejoin:miter;stroke-opacity:1"
				/>
				<rect
					id="rectShadowTopLeft-Top"
					x="9.0"
					y="0"
					width="0.0"
					height="6"
					style="fill:url(#linearGradientShadowTop);fill-opacity:1;fill-rule:evenodd;stroke:none;stroke-width:1px;stroke-linecap:butt;stroke-linejoin:miter;stroke-opacity:1;opacity:0.9"
				/>
			</g>
			<g id="shadow-top" style="opacity:1">
				<rect
					id="rectShadowTop-Top"
					x="9.0"
					y="0"
					width="32"
					height="6"
					style="opacity:0.9;fill:url(#linearGradientShadowTop);fill-opacity:1;stroke:none"
				/>
				<rect
					id="rectShadowTop-Placeholder"
					x="9.0"
					y="6"
					width="32"
					height="3.0"
					style="opacity:1;fill:none;fill-opacity:1;stroke:none"
				/>
			</g>
			<g id="shadow-topright" style="opacity:1">
				<rect
					id="rectShadowTopRight-Top"
					x="41.0"
					y="0"
					width="0.0"
					height="6"
					style="fill:url(#linearGradientShadowTop);fill-opacity:1;fill-rule:evenodd;stroke:none;stroke-width:1px;stroke-linecap:butt;stroke-linejoin:miter;stroke-opacity:1;opacity:0.9"
				/>
				<path
					id="pathShadowTopRight-TopRight"
					d="m 50.0,0 h -9.0 v 6 c 2.0,0 3.0,1.0 3.0,3.0 h 6 z"
					style="opacity:0.9;fill:url(#radialGradientShadowTopRight);fill-opacity:1;fill-rule:evenodd;stroke:none;stroke-width:1px;stroke-linecap:butt;stroke-linejoin:miter;stroke-opacity:1"
				/>
				<rect
					id="rectShadowTopRight-Right"
					x="44.0"
					y="9.0"
					width="6"
					height="0.0"
					style="fill:url(#linearGradientShadowRight);fill-opacity:1;fill-rule:evenodd;stroke:none;stroke-width:1px;stroke-linecap:butt;stroke-linejoin:miter;stroke-opacity:1;opacity:0.9"
				/>
			</g>
			<g id="shadow-left" style="opacity:1">
				<rect
					id="rectShadowLeft-Left"
					x="0"
					y="9.0"
					width="6"
					height="32"
					style="opacity:0.9;fill:url(#linearGradientShadowLeft);fill-opacity:1;stroke:none"
				/>
				<rect
					id="rectShadowLeft-Placeholder"
					x="6"
					y="9.0"
					width="3.0"
					height="32"
					style="opacity:1;fill:none;fill-opacity:1;stroke:none"
				/>
			</g>
			<g id="shadow-center" style="opacity:1">
				<rect
					id="rectShadowCenter-Placeholder"
					x="9.0"
					y="9.0"
					width="32"
					height="32"
					style="opacity:1;fill:none;fill-opacity:1;stroke:none"
				/>
			</g>
			<g id="shadow-right" style="opacity:1">
				<rect
					id="rectShadowRight-Right"
					x="44.0"
					y="9.0"
					width="6"
					height="32"
					style="opacity:0.9;fill:url(#linearGradientShadowRight);fill-opacity:1;stroke:none"
				/>
				<rect
					id="rectShadowRight-Placeholder"
					x="41.0"
					y="9.0"
					width="3.0"
					height="32"
					style="opacity:1;fill:none;fill-opacity:1;stroke:none"
				/>
			</g>
			<g id="shadow-bottomleft" style="opacity:1">
				<rect
					id="rectShadowBottomLeft-Left"
					x="0"
					y="41.0"
					width="6"
					height="0.0"
					style="fill:url(#linearGradientShadowLeft);fill-opacity:1;fill-rule:evenodd;stroke:none;stroke-width:1px;stroke-linecap:butt;stroke-linejoin:miter;stroke-opacity:1;opacity:0.9"
				/>
				<path
					id="pathShadowBottomLeft-BottomLeft"
					d="m 0,50.0 h 9.0 v -6 c -2.0,0 -3.0,-1.0 -3.0,-3.0 h -6 z"
					style="opacity:0.9;fill:url(#radialGradientShadowBottomLeft);fill-opacity:1;fill-rule:evenodd;stroke:none;stroke-width:1px;stroke-linecap:butt;stroke-linejoin:miter;stroke-opacity:1"
				/>
				<rect
					id="rectShadowBottomLeft-Bottom"
					x="9"
					y="44.0"
					width="0.0"
					height="6"
					style="fill:url(#linearGradientShadowBottom);fill-opacity:1;fill-rule:evenodd;stroke:none;stroke-width:1px;stroke-linecap:butt;stroke-linejoin:miter;stroke-opacity:1;opacity:0.9"
				/>
			</g>
			<g id="shadow-bottom" style="opacity:1">
				<rect
					id="rectShadowBottom-Bottom"
					x="9.0"
					y="44.0"
					width="32"
					height="6"
					style="opacity:0.9;fill:url(#linearGradientShadowBottom);fill-opacity:1;stroke:none"
				/>
				<rect
					id="rectShadowBottom-Placeholder"
					x="9.0"
					y="41.0"
					width="32"
					height="3.0"
					style="opacity:1;fill:none;fill-opacity:1;stroke:none"
				/>
			</g>
			<g id="shadow-bottomright" style="opacity:1">
				<rect
					id="rectShadowBottomRight-Bottom"
					x="41.0"
					y="44.0"
					width="0.0"
					height="6"
					style="fill:url(#linearGradientShadowBottom);fill-opacity:1;fill-rule:evenodd;stroke:none;stroke-width:1px;stroke-linecap:butt;stroke-linejoin:miter;stroke-opacity:1;opacity:0.9"
				/>
				<path
					id="pathShadowBottomRight-BottomRight"
					d="m 50.0,50.0 v -9.0 h -6 c 0,2.0 -1.0,3.0 -3.0,3.0 v 6 z"
					style="opacity:0.9;fill:url(#radialGradientShadowBottomRight);fill-opacity:1;fill-rule:evenodd;stroke:none;stroke-width:1px;stroke-linecap:butt;stroke-linejoin:miter;stroke-opacity:1"
				/>
				<rect
					id="rectShadowBottomRight-Right"
					x="44.0"
					y="41.0"
					width="6"
					height="0.0"
					style="fill:url(#linearGradientShadowRight);fill-opacity:1;fill-rule:evenodd;stroke:none;stroke-width:1px;stroke-linecap:butt;stroke-linejoin:miter;stroke-opacity:1;opacity:0.9"
				/>
			</g>

			<!-- Shadow Margins -->
			<rect
				id="shadow-hint-top-margin"
				x="23"
				y="0"
				width="4"
				height="6"
				style="fill:#ff00ff;fill-opacity:1;stroke:none"
			/>
			<rect
				id="shadow-hint-left-margin"
				x="0"
				y="23"
				width="6"
				height="4"
				style="fill:#ff00ff;fill-opacity:1;stroke:none"
			/>
			<rect
				id="shadow-hint-right-margin"
				x="44"
				y="23"
				width="6"
				height="4"
				style="fill:#ff00ff;fill-opacity:1;stroke:none"
			/>
			<rect
				id="shadow-hint-bottom-margin"
				x="23"
				y="44"
				width="4"
				height="6"
				style="fill:#ff00ff;fill-opacity:1;stroke:none"
			/>

			<!-- Shadow Inset -->
			<rect
				id="shadow-hint-top-inset"
				x="29"
				y="0"
				width="4"
				height="6"
				style="fill:#00ff00;fill-opacity:1;stroke:none"
			/>
			<rect
				id="shadow-hint-left-inset"
				x="0"
				y="29"
				width="6"
				height="4"
				style="fill:#00ff00;fill-opacity:1;stroke:none"
			/>
			<rect
				id="shadow-hint-right-inset"
				x="44"
				y="29"
				width="6"
				height="4"
				style="fill:#00ff00;fill-opacity:1;stroke:none"
			/>
			<rect
				id="shadow-hint-bottom-inset"
				x="29"
				y="44"
				width="4"
				height="6"
				style="fill:#00ff00;fill-opacity:1;stroke:none"
			/>
		</g>

		<!-- Mask Tileset -->
		<g id="mask-tileset" transform="translate(122,6)">
			<g id="mask-topleft">
				<path
					id="pathMaskTopLeft"
					d="m 3.0,3.0 h -3.0 v -0.0 c 0,-2.0 1.0,-3.0 3.0,-3.0 h 0.0 z"
					style="opacity:0.97;fill:#000000;fill-opacity:1"
				/>
			</g>
			<g id="mask-top">
				<rect
					id="rectMaskTop"
					x="3.0"
					y="0"
					width="32"
					height="3.0"
					style="opacity:0.97;fill:#000000;fill-opacity:1;stroke:none"
				/>
			</g>
			<g id="mask-topright">
				<path
					id="pathMaskTopRight"
					d="m 35.0,3.0 v -3.0 h 0.0 c 2.0,0 3.0,1.0 3.0,3.0 v 0.0 z"
					style="opacity:0.97;fill:#000000;fill-opacity:1"
				/>
			</g>
			<g id="mask-left">
				<rect
					id="rectMaskLeft"
					x="0"
					y="3.0"
					width="3.0"
					height="32"
					style="opacity:0.97;fill:#000000;fill-opacity:1;stroke:none"
				/>
			</g>
			<g id="mask-center">
				<rect
					id="rectMaskCenter"
					x="3.0"
					y="3.0"
					width="32"
					height="32"
					style="opacity:0.97;fill:#000000;fill-opacity:1;stroke:none"
				/>
			</g>
			<g id="mask-right">
				<rect
					id="rectMaskRight"
					x="35.0"
					y="3.0"
					width="3.0"
					height="32"
					style="opacity:0.97;fill:#000000;fill-opacity:1;stroke:none"
				/>
			</g>
			<g id="mask-bottomleft">
				<path
					id="pathMaskBottomLeft"
					d="m 3.0,35.0 v 3.0 h -0.0 c -2.0,0 -3.0,-1.0 -3.0,-3.0 v -0.0 z"
					style="opacity:0.97;fill:#000000;fill-opacity:1"
				/>
			</g>
			<g id="mask-bottom">
				<rect
					id="rectMaskBottom"
					x="3.0"
					y="35.0"
					width="32"
					height="3.0"
					style="opacity:0.97;fill:#000000;fill-opacity:1;stroke:none"
				/>
			</g>
			<g id="mask-bottomright">
				<path
					id="pathMaskBottomRight"
					d="m 35.0,35.0 h 3.0 v 0.0 c 0,2.0 -1.0,3.0 -3.0,3.0 h -0.0 z"
					style="opacity:0.97;fill:#000000;fill-opacity:1"
				/>
			</g>
		</g>
	</g>
</svg>
